…
From above: We see that there are no flights in 0,2,3,4 hour in a day.

1st pattern:weather I think visibility determines whether a flight will
be cancelled or not. If visibility of time A is longer than visibility
in time B, we think flights in time A are less likely to be delayed.

``` r
weather %>%
  group_by(hour) %>%
  summarise(visib_mean = mean(visib,na.rm = TRUE)) %>%
  arrange(desc(visib_mean))
```

    ## # A tibble: 24 × 2
    ##     hour visib_mean
    ##    <int>      <dbl>
    ##  1    18       9.40
    ##  2    17       9.38
    ##  3    16       9.38
    ##  4    21       9.38
    ##  5    19       9.36
    ##  6    15       9.36
    ##  7    13       9.35
    ##  8    14       9.33
    ##  9    20       9.33
    ## 10    22       9.33
    ## # … with 14 more rows
…
